{
  "type": "Feature",
  "geometry": {
    "type": "Polygon",
    "coordinates": [[
      [2.12256, 41.37913],
      [2.11308, 41.38623],
      [2.12805, 41.39746],
      [2.13751, 41.39036],
      [2.12256, 41.37913]
    ]]
  }
}